<?xml version="1.0" encoding="utf-8"?>
<!-- Generator: Adobe Illustrator 21.1.0, SVG Export Plug-In . SVG Version: 6.00 Build 0)  -->
<svg version="1.1" id="Layer_1" xmlns="http://www.w3.org/2000/svg" xmlns:xlink="http://www.w3.org/1999/xlink" x="0px" y="0px"
	 viewBox="0 0 415.7 397.6" style="enable-background:new 0 0 415.7 397.6;" xml:space="preserve">
<style type="text/css">
	.st0{fill:none;stroke:#143F92;stroke-width:6;stroke-linecap:round;stroke-miterlimit:10;}
	.st1{fill:none;stroke:#FCC200;stroke-width:7;stroke-miterlimit:10;}
	.st2{fill:none;stroke:#6CA4D8;stroke-width:7;stroke-miterlimit:10;}
</style>
<g>
	<circle class="st0" cx="226.4" cy="189.2" r="101.5"/>
	<ellipse class="st0" cx="226.4" cy="189.2" rx="50.8" ry="101.5"/>
	<path class="st0" d="M147.5,254.5c18.6-11.5,47-18.8,78.8-18.8c31.4,0,59.4,7.1,78,18.3"/>
	<path class="st0" d="M305.2,123.9c-18.6,11.5-47,18.8-78.8,18.8c-31.4,0-59.4-7.1-78-18.3"/>
	<line class="st0" x1="309.6" y1="189.2" x2="327.9" y2="189.2"/>
	<line class="st0" x1="124.9" y1="189.2" x2="294.6" y2="189.2"/>
	<line class="st0" x1="226.4" y1="87.7" x2="226.4" y2="290.7"/>
</g>
<path class="st1" d="M156.4,394.2C68.2,369.8,3.5,288.9,3.5,193c0-84.2,49.9-156.8,121.7-189.8"/>
<path class="st2" d="M412.2,184.8c0,103.4-83.9,187.3-187.3,187.3S37.6,288.3,37.6,184.8"/>
<g>
</g>
<g>
</g>
<g>
</g>
<g>
</g>
<g>
</g>
<g>
</g>
</svg>
