<?xml version="1.0" encoding="utf-8"?>
<!-- Generator: Adobe Illustrator 21.1.0, SVG Export Plug-In . SVG Version: 6.00 Build 0)  -->
<svg version="1.1" id="Layer_1" xmlns="http://www.w3.org/2000/svg" xmlns:xlink="http://www.w3.org/1999/xlink" x="0px" y="0px"
	 viewBox="0 0 415.7 397.6" style="enable-background:new 0 0 415.7 397.6;" xml:space="preserve">
<style type="text/css">
	.st0{fill:none;stroke:#FCC200;stroke-width:7;stroke-miterlimit:10;}
	.st1{fill:none;stroke:#6CA4D8;stroke-width:7;stroke-miterlimit:10;}
	.st2{fill:none;stroke:#143F92;stroke-width:6;stroke-linecap:round;stroke-miterlimit:10;}
</style>
<path class="st0" d="M156.4,394.2C68.2,369.8,3.5,288.9,3.5,193c0-84.2,49.9-156.8,121.7-189.8"/>
<path class="st1" d="M412.2,184.8c0,103.4-83.9,187.3-187.3,187.3S37.6,288.3,37.6,184.8"/>
<g>
	<g id="Layer_1-2">
		<path class="st2" d="M148,207.1c-3.6-8.8-5.6-18.5-5.6-28.6c0-41.8,33.9-75.7,75.7-75.7s75.7,33.9,75.7,75.7s-33.9,75.7-75.7,75.7
			c-23.3,0-44.2-10.5-58-27.1"/>
		<polyline class="st2" points="142.4,227.4 188.2,181.5 213.6,202.9 261.3,155.4 		"/>
		<polyline class="st2" points="233.8,155.4 261.3,155.4 260.9,182.6 		"/>
	</g>
	<path class="st2" d="M323.3,279.7L323.3,279.7c-5,5-13.1,5-18.1,0l-21.2-21.2c-5-5-5-13.1,0-18.1v0c5-5,13.1-5,18.1,0l21.2,21.2
		C328.3,266.5,328.3,274.7,323.3,279.7z"/>
	<line class="st2" x1="272.3" y1="230.7" x2="287.4" y2="245.4"/>
</g>
<g>
</g>
<g>
</g>
<g>
</g>
<g>
</g>
<g>
</g>
<g>
</g>
</svg>
